module grpc_sample5

go 1.21.1

require (
	github.com/golang/protobuf v1.5.3
	google.golang.org/grpc v1.61.0
	google.golang.org/protobuf v1.32.0
)

require (
	golang.org/x/net v0.18.0 // indirect
	golang.org/x/sys v0.14.0 // indirect
	golang.org/x/text v0.14.0 // indirect
	google.golang.org/genproto/googleapis/rpc v0.0.0-20231106174013-bbf56f31fb17 // indirect
)
