module api_sample3

go 1.20

require (
	github.com/go-sql-driver/mysql v1.7.0 // indirect
	github.com/jinzhu/inflection v1.0.0 // indirect
	github.com/jinzhu/now v1.1.5 // indirect
	github.com/labstack/echo/v4 v4.11.1 // indirect
	github.com/labstack/gommon v0.4.0 // indirect
	github.com/mattn/go-colorable v0.1.13 // indirect
	github.com/mattn/go-isatty v0.0.19 // indirect
	github.com/valyala/bytebufferpool v1.0.0 // indirect
	github.com/valyala/fasttemplate v1.2.2 // indirect
	golang.org/x/crypto v0.11.0 // indirect
	golang.org/x/net v0.12.0 // indirect
	golang.org/x/sys v0.10.0 // indirect
	golang.org/x/text v0.11.0 // indirect
	gorm.io/driver/mysql v1.5.1 // indirect
	gorm.io/gorm v1.25.2 // indirect
)
